00aff6ee87235cf499ee361f65afd1333822e4e8[(12, 0.9993449)]
00acdf151a73ccadab855a1cc38cf294412b12eb[(3, 0.98441046)]
00a4a53db0deed82ba6090caac1a41b65274e407[(14, 0.9982597)]
00aaa25a28b6a6092ca5b879fc5abe470bbe2a26[(14, 0.9996619)]
00a35973edc80e31690d617b069b83cb07e2943f[(8, 0.9992181)]
00a43c53a886767770bae27b44926a1a60ce8e67[(4, 0.9997184)]
00a47534d8a06e95af771080ddb45121ac929df0[(13, 0.99348956)]
00af72b968b8fc595b383e2f4ac2b546f3fdf32b[(5, 0.21503893), (19, 0.78448987)]
00af967b451e4b630b2be24f41e8d91c7f346b3a[(13, 0.999261)]
00a91e1cb81af886e614ac0814974e3edd8a543b[(7, 0.99733067)]
00a45ea55d59cc58a0ec62bbfb5efe60681e176b[(16, 0.99605733)]
00a49725bd4ca2eda0583ede7cecb1ff75ae268c[(3, 0.992745)]
00adf0b612d6467de26adfc6deb4abe04a9da526[(7, 0.035173982), (14, 0.019732906), (15, 0.944213)]
00a9cdd50a6253c5b9b266616853cdc8d5a45a98[(13, 0.96934503)]
00af3a62c7fba24d3cd4a2764262133223e0bb5d[(10, 0.64038), (16, 0.35070735)]
00a82dcc4d2f3a06191390c31af8d12778d4e75b[(9, 0.30021712), (14, 0.5086414), (18, 0.18781836)]
00a3d1221b15ab53edb2a0e8d25c09c2f193f3a4[(18, 0.99597186)]
00a3f99fef20eebe8ef753db361f6557e7950118[(12, 0.9987752)]
00a254e0fc97a2f7842e4e4d97cf5564c2df4fbe[(7, 0.04165598), (9, 0.9569924)]
00ae4eb41254c6ac0ee7904e33cb176924cc6688[(0, 0.99390405)]
00ad3ecb5c0e5e9315d90155ce31b1e729413979[(18, 0.996617)]
00a97ed2b5a68c2bb03e276f66cb3aaa921c4d5a[(15, 0.9992344)]
00a3be71a060ccab77df6215171c3fb051d612bc[(14, 0.99058956)]
00acdc2f96203ed5da9947bb7fdeece73d87233b[(5, 0.070137314), (16, 0.9229846)]
00ae11423fd0201d326f595c89b3181d0db1e136[(6, 0.9905796)]
00a03dfacaeb80953eeee2c5911bd130394c228f[(15, 0.99976426)]
00a175d0d29b006f48607a4967923aa67df20ee8[(0, 0.05893808), (2, 0.01104423), (10, 0.7833257), (15, 0.012919008), (16, 0.13317148)]
00ad8516ecc6357cdf4ea0f150aa8b4c834cd1f7[(12, 0.9996016)]
00acaeddd64513d75ab1146f378cf23af6f3ec95[(0, 0.06901538), (2, 0.026116004), (9, 0.02452535), (11, 0.1515591), (19, 0.728033)]
00a3f26c068bb6ead13f9b8659a90ab2ee0f2804[(2, 0.99578935)]
00a1ba5a05c04b140f28ae2a5b2bde60e70d3687[(12, 0.9990458)]
00aed2484d4a9530319a51bdfacb0275ce8a82e8[(9, 0.99732924)]
00aca93a951da80f04c8a09fdb50216dbde73def[(5, 0.9986244)]
00add3ee2607418387a24f796b921480d3c28b7a[(3, 0.8674241), (6, 0.04353701), (8, 0.0204341), (14, 0.016079305), (19, 0.04634623)]
00ab57c702c79bfc67b9e928bf1a776fc2593ae6[(10, 0.9988489)]
00ade7fd352efc72325623c3f5add8395c622cee[(5, 0.1672758), (11, 0.82845724)]
00a6eecdd29d3da49ad29f74b18ea1c0fc01074f[(4, 0.96343005)]
00a34dabfc62de85fea42ad75bad46a78c886a36[(5, 0.36457762), (6, 0.37088704), (12, 0.26325825)]
00a920a561c93de9651adfdaec997fb0899aa56a[(11, 0.99642515)]
00aebfe617b060fb0253cf93fcb97d36fda5a219[(16, 0.9813542)]
00af65b2a973dbd15e2c5ee7144c9b3362b7f245[(2, 0.999429)]
00aead1ce903734a61fe6a5932ac1ca15a7f33b1[(14, 0.99782085)]
00a753c603f94c2a114150f23e9eecda9f16dc90[(12, 0.012866446), (13, 0.9420225)]
00a19cb969c413e2fa66cc0beae4c5a6e9d4115f[(5, 0.44243386), (12, 0.5355849)]
00acc2fc7d2a5a59d3b0610671c7f1b787b471d1[(12, 0.998968)]
00af3c194b08c441db3a5fa385589c78e0d11050[(16, 0.99880576)]
00aed6e22f71cc55858e017b5221b1fb55826f88[(9, 0.25927702), (14, 0.15009001), (15, 0.5879412)]
00a8a4bf622e3326b6fd370df88090ec1d74e73d[(6, 0.86788374), (10, 0.13096222)]
00aa9303c4c42c4bd9e03349f83d22044e2a7a81[(19, 0.99908704)]
00aba0510fd7f139286e4ade98f19c5ef01836f5[(10, 0.9989327)]
00a72412500d2450f8bf7795dca26ebd9d938952[(16, 0.99848086)]
00aabda977dfdd30b4193aeccf1e082294a81e1a[(6, 0.33614102), (15, 0.661817)]
00aef903bdea772e5bfb3729ee5feed179815be3[(8, 0.996213)]
00a26ca63b4be4361e09fff943c58a3228628ffb[(9, 0.9406217)]
00a0cd2402406bb36e9298e76990df305328b789[(17, 0.9957009)]
00ac6caea67804f468131fc4e9a7f4962b9e3c72[(19, 0.9996626)]
00aca544954553d1855f38a69ff93e8b9552c65a[(16, 0.9996259)]
00a9df5b836d3dffe4cd45a6cd49c63244985d16[(7, 0.056731503), (15, 0.9426071)]
00a803691e41759407ac91c2ef60a9460ba3c94d[(0, 0.9874866)]
00aa9bf58542bb0a1006c5bfcee7b6dc0e28a37b[(7, 0.08066848), (8, 0.9190855)]
00ac657e64b82ad83ff0e730a8426e1ddec08c29[(5, 0.24964288), (15, 0.7307813)]
00a278d2520fd0562c5fb726560618a58da1cf03[(16, 0.9993113)]
00ad827ab806b48dd845ba96870c658892a22512[(17, 0.9981586)]
00a49b7da4891aa588c7f116813478fe24f0dd22[(15, 0.9957938)]
00ab8d0a069db326aa432635f43d64f5fcdf22f3[(11, 0.9736327), (12, 0.01706274)]
00a097e6c9bed43702972e00e2a817eb089629a3[(7, 0.99728)]
00a1786fc85b4b910ae9e9b9fa146d71ec47c25f[(5, 0.9977432)]
00a0cc94a660c2e7a1f7f6c8be8dcc6c8b47a7ef[(7, 0.23544335), (17, 0.76331633)]
00aef14c5e53b35f1051d03a0558e49170905ccd[(16, 0.9978694)]
00a48aad72b99e892d995271b6cc567b59b4e894[(12, 0.998193)]
00ad2421b466d4169c11367f4f9ce126ac4e66fc[(4, 0.99684256)]
00a9e538b5a341c99a6ecb809562963e3c54883a[(12, 0.99949133)]
00a5b0e7cd0d57f2489aca7f4b25b719189c36db[(19, 0.98826575)]
00af70b7e48d7a94f617537151fd4d94651d3279[(6, 0.99881333)]
00af541c6edb5eff3165846f5476df67c3a622b1[(0, 0.9993261)]
00a485581f301866d3abee32a3fced0a1e72b29a[(7, 0.9983211)]
00ab6a8d1c7eb45153222beb3252f87e4905e767[(2, 0.9996482)]
00a3986087a49dacf8ee80b43d5750668e51dab5[(19, 0.99753714)]
00a26e4d906bf5dede98d7c853f5972f6fb24e9c[(11, 0.9946003)]
00a25438cf8aa26ea3384335948c2698ad30ba05[(3, 0.99922794)]
00a2d7b47f3213623af5f85a6e91233f439e8798[(5, 0.17999372), (11, 0.22499739), (12, 0.5941323)]
00ae5d7cb6ab48012922473522f77c525c2520fd[(2, 0.1052837), (15, 0.88481903)]
00afb1bfc503090c8f4aaa4ddb13dc9ce2097bfe[(8, 0.9995262)]
00a66cbf5bf01aa37e0c1bf49b7a06c9482a8ad5[(6, 0.9996925)]
00a4665a935cc1efa2db4adcd4911b1046a22212[(10, 0.99540836)]
00af06d451fb8715390de6b70420f5c98619fb00[(8, 0.9993334)]
00a6a66d42025c24db80befadccd94db0a39a821[(19, 0.9960553)]
00a34614beba8989da911351a00f96b731822e7d[(1, 0.9978695)]
00a7d67509ff2a0a555557df5ed2fbaa2d41580e[(10, 0.9918022)]
00a5dcf052d4f2c11c42297e3b4be32d6baa06d8[(3, 0.9975696)]
00a762979f904e711c602bfb10d83d38339ad726[(17, 0.9978453)]
00a0363d8987576704a374642abae9773c4f5d76[(5, 0.6967647), (9, 0.2981182)]
00a1fd10a0fd199cfaeba84d437fd04da5dbf8ae[(6, 0.40183786), (7, 0.16708909), (10, 0.21503899), (14, 0.2129664)]
00af5a1af3d7ee150dae7da6b26c382d52f3d796[(5, 0.02181484), (6, 0.39540714), (12, 0.24684995), (16, 0.33476093)]
00ad476a964ead7c4655d567ddc4ba73b66c7d50[(1, 0.73028195), (12, 0.2684055)]
00a3c69f36c6c52ebec76c3aa7ae522b2e8b8a8f[(4, 0.99912864)]
00ac5149ba26f3ce366b09f7f5b710054f680389[(7, 0.9406177)]
00a98e9ecb958f04ceb6e2dd6fc0bc2707e527d9[(2, 0.04865181), (3, 0.9424309)]
00a7f51ee5bdb972d5503f278592d2caf967f1f4[(9, 0.9200581), (18, 0.076556966)]
00af1a1a8022dfe15119315b876bfcffb58dade7[(0, 0.010203348), (5, 0.325901), (6, 0.016626548), (12, 0.29704088), (15, 0.349334)]
00afc783f6a4fa87ec49b49d56a66f4e4a2ec765[(17, 0.99549556)]
00a23728e1bc1c9f7e4f783a7b902d6a28299fff[(2, 0.14561684), (6, 0.85153323)]
00a0fc9b0096f801ae2d99c8e7597abc2449e690[(7, 0.53560054), (19, 0.4624867)]
00a2f9bae7048ebc3e39c6dde48d5e2e92990b23[(9, 0.9987165)]
00aaf27fed267fb564169ab4b683be5adff32afb[(1, 0.9982907)]
00ab7a8860542ba20293f587d92b710c04e0de72[(7, 0.08578533), (10, 0.9117199)]
00a0b2d33219bf2fbd73bb499a31429c89b1fb9f[(17, 0.99821055)]
00aaa7eba181296e6c6a337e46d22f3751f7a22f[(0, 0.05), (1, 0.05), (2, 0.05), (3, 0.05), (4, 0.05), (5, 0.05), (6, 0.05), (7, 0.05), (8, 0.05), (9, 0.05), (10, 0.05), (11, 0.05), (12, 0.05), (13, 0.05), (14, 0.05), (15, 0.05), (16, 0.05), (17, 0.05), (18, 0.05), (19, 0.05)]
00aaffe24e8340b5ab13b3b7e5436332b91a1d83[(17, 0.99874294)]
00a5a59b30909dd696118eecd9bc3e831616e9ae[(17, 0.99837846)]
00a645c80fcb5a9d6a0d359c96aa392fbfcab34b[(3, 0.99180204)]
00af4e4e94be49ff42247ca1b576095a927a2fe1[(5, 0.9997121)]
00a4e15996c7e936ab0adaac6d240a5343237857[(13, 0.97665983), (15, 0.020285225)]
00a3d94ec3a2559601dbea2f8657663395c1d04a[(6, 0.99979347)]
00ab3b4ab80204ebef75a8f4d816d59b152fe92b[(6, 0.9991083)]
00a9ead64f3c3567465f9a155fb5394e37df7018[(1, 0.6236188), (7, 0.36746815)]
00a5767b4b09339b93904f00dbb7b57ea21030c6[(11, 0.21619791), (16, 0.34544903), (17, 0.43290222)]
00af6e521616bdd7d9d499af3cc123e3e74e0e8e[(16, 0.9998081)]
00a62e10dc07eaeff889f77badce220a2c82ec30[(13, 0.99725294)]
00a5f2a6829df29d41c4068e95463ae5d78f87f5[(11, 0.7556802), (14, 0.126323), (16, 0.11405741)]
00a7a380d792b709d2adad0d29a2abd0da8eb65e[(10, 0.9597546), (12, 0.01632294), (15, 0.023509694)]
00a0dc24e4998295348d5df91122e846787a8101[(15, 0.19754496), (19, 0.7987176)]
00acc72c07ab5c64e426f8570eb915dfce35e8ba[(6, 0.9993951)]
00afd14f349e39606a51d8c0fa8b7775c056086a[(16, 0.9405818)]
00a57a51db75ec62a838235b60be9ddf32132b4b[(6, 0.9944865)]
00a1e428cb6087d5cf56cc6aae1a954ca842e7f8[(12, 0.9989212)]
00a89d860e761b6a502ff9b1c39ea4ba6ddb7599[(8, 0.47204554), (13, 0.31058246), (18, 0.18990135)]
00add6c7fbed761ac84086e7ed598828766c3aab[(6, 0.7262856), (12, 0.26811925)]
00a3d2fe1081bfc00383727df4756cd69d7f65de[(0, 0.60813767), (15, 0.28025436), (18, 0.1055763)]
00a64342265b5618e9cd3435f2c56df9099fd179[(6, 0.10992231), (11, 0.6911075), (17, 0.18962152)]
00a65acdafcaa8d01ceaf937fe3b1e92fda04bbd[(0, 0.9973666)]
00a2e61ddc4a42c8fe69f438fb68d643f32c0e0c[(0, 0.99779457)]
00a6b90c7ed13913bf86402d34f278e4672d36d1[(0, 0.19591361), (6, 0.25893256), (16, 0.5322676)]
00a7a2078032313e62d2fe371994ec13399d4cf9[(0, 0.9997407)]
00a174e75bd1abda8f6e5a66631c8f2dc2e4231b[(3, 0.99214476)]
00a182a7a7568810503ba6e7192cc81befebdeda[(17, 0.9866071)]
00a2fc90df4677c0433308b42dd740fbff457f57[(8, 0.32733953), (14, 0.19950178), (18, 0.44953337)]
00abe82e9ade6babeae235e8b2a4b76dc46142d3[(5, 0.9793317)]
00ab2c4e9050b3877941a3814c7bbf74bcb40d15[(9, 0.9989153)]
00a673b8ff07226e7973c97e593e978169a28dc7[(15, 0.99976325)]
00a2af0d5d3d935f289ca2af68d4cc1f38a7424e[(1, 0.99274415)]
00a4f3dbf0a27ba5e496e48e42bb39cfb3adaa2e[(11, 0.9989023)]
00aeaf20718d713b746ed69c8a29f70bf06a1bb9[(3, 0.9924533)]
00a42102d9d581bc2d5de262f2009ca898d0324d[(5, 0.2859482), (11, 0.45951018), (12, 0.2466601)]
00acaa2de8a8b9382a03abc367fcbce37d30da6d[(7, 0.99892145)]
00aab90d46b43c695d9747d7023a4a02d0b4b76f[(0, 0.8803578), (2, 0.11721516)]
00af1e63ddd5a418166d4fb2dfa4dbb138717d83[(12, 0.99825984)]
00a3dd26ef628fda3af3625958230ea882d23bb3[(2, 0.9982264)]
00ab3cd202f0e9f48660c9bfd76a906c474a3fc2[(12, 0.9767856)]
00ac131042ef7fc93d997709d5613b6e8270ad55[(15, 0.91608447), (17, 0.079200216)]
00ae43e2cff0dd186a9f593796dec940a9b570de[(14, 0.9969924)]
00a517b42bc99138f667604cc169b31c63189faa[(9, 0.9900905)]
00a5faffe1ddf21f0127631ccb235f84dd467707[(14, 0.98895067)]
00ababcf12d5d60a684e31c1a0fb8ebef09223ac[(7, 0.14340086), (17, 0.85514945)]
00a0ffe3ba4e05e4b75c0c8a647ff9f023ef0d0c[(16, 0.28374878), (18, 0.7140611)]
00a408325d10d768f96f1e8c3dea80f62f133e2c[(7, 0.8497715), (11, 0.14426519)]
00abec0e44b9e34378325fe3fa0f3e9e1289ba92[(7, 0.42407888), (11, 0.5684759)]
00aa76fd2feeb9475174b6086ac4ca963a7be4b8[(0, 0.12623902), (9, 0.023206746), (10, 0.09399069), (16, 0.7459617)]
00a63e52b6a0ec2a7bd758281a7d81589dd5dcdb[(0, 0.99914455)]
00a97ae68bb8d0d32ddcfd1e6b3efe74e34dbe43[(0, 0.9998062)]
00ac74c560e7eafb7acf5c9fa75c73d40f87e060[(12, 0.9997702)]
00a64d8c2ef92fcbbacaa9663a3c14d9f3136b7e[(2, 0.060355105), (7, 0.18326853), (12, 0.14039116), (17, 0.2474385), (18, 0.36451808)]
00a1e8d4edee310e59a5d91cf5735f057f4995a8[(1, 0.998306)]
00a50f6f5d08b71d1839f62e1c0c1a0c0d0a754b[(5, 0.9793309)]
00a683aa3c5f82176e817e1fc232619996760f6f[(9, 0.8905124), (13, 0.09583504)]
00a0788c6582ed4c06fe1c0ca3e408f136e53cc6[(9, 0.99620974)]
00a013d5313ef0c0f43c6433405ec72bffe794a9[(8, 0.999129)]
00adf431c6eca09ce804852d0c554d16d960f297[(6, 0.94223446), (10, 0.05574641)]
00ae961cc30854ca4347a70243e2b81ed19e4660[(9, 0.9967319)]
00adedc7084bf7f41918b574127338d993f1e62d[(4, 0.99976826)]
00ab19c9d487ce3db61613ab77c3f7b17ac7852a[(7, 0.51977426), (12, 0.3318623), (13, 0.14070131)]
00ae7a4710ccf7e9b4fe6b350a611f824f3f3878[(5, 0.7466864), (9, 0.25088695)]
00ad8b28537d224c76e79e61807463fa36418d3e[(11, 0.9989568)]
00a1d53ade08f44bfa966c2946b29d29b6f73522[(2, 0.96340096)]
00a397bfebc1d63b587542cbf8f3bf86934839da[(2, 0.9982431)]
00acab783409577a82607ed587474985aa686188[(3, 0.5897857), (5, 0.21623161), (12, 0.19294056)]
00ada158cbec25e4ae4cecbe8cb6fac9150ca982[(10, 0.9882587)]
00a38583a647a84340572bbd805b6d45d898b86f[(7, 0.78510815), (10, 0.19880788)]
00a78972fbf1ffc29703dd43b531d8655a5d7c94[(7, 0.18486333), (15, 0.8139983)]
00a7cffd157ae874862d8798167f9ce80dcd0ddc[(16, 0.997893)]
00adf68cc913b2f6acd486fbf391d13f1f07fdcd[(16, 0.99911654)]
00ad5df54332ec4ce761a1c508867796a6a251bf[(11, 0.9900941)]
00a916439690703bed4401ee128cff531b855c9e[(14, 0.9963576)]
00ab83398860e709c72b0eb5fccede113eaabcb3[(6, 0.91164714), (17, 0.08387255)]
00a7e1544e77685bb41b9c341cb02e56bf754a5a[(15, 0.99555707)]
00a9678587ce8413cdf7efdc7e4954c79ea279e9[(9, 0.9768121)]
00a456bd4c8c3f51057fa01cf61b82e52db6c36c[(5, 0.69071525), (11, 0.118592314), (14, 0.18836868)]
00af023c8ce75ec273bb687d8416f3732bdf5430[(9, 0.38602564), (14, 0.60285914)]
00a3ef98b220793df2c21eaf31b3453ca54b4fda[(8, 0.99694365)]
00a22862a323b9b383eba466f11917af7ebc4d84[(5, 0.9989026)]
00ad94ef37137d28efdfa426cd2cbbbbbda68a66[(6, 0.89045894), (10, 0.093454085)]
00aa0a3b8bd7fa0e748b9959de74ac37c96a05e1[(5, 0.99884856)]
00abffd99484dcae0a9433e4bbe8813b840b2914[(18, 0.9981028)]
00a025683570c6bf4d3ae63046366dea0c7a15f4[(5, 0.9966773)]
00a8b66faffc57d2e476a8228580a73bdffa1903[(1, 0.999485)]
00ae6357acec1e1162c9a052129718bca72d7f48[(9, 0.9983058)]
00a0974f7e6cbdf9507a71f22989be8f17667416[(0, 0.93060577), (8, 0.065224536)]
00adb0460d98ff6eb5c64fa19df1b3fac86f83ed[(9, 0.99729145)]
00a6b88d394a32e4c47fc99e6280bd76bdc1e5e5[(2, 0.9233663), (15, 0.0750142)]
00a254798fe13f4e73c24dac8833f3d1d77b8047[(14, 0.9986636)]
00a0694d32592ce8c1356572554ac5601226b92f[(12, 0.99390274)]
00ac67d771859f68fa1f325026b407146d16bddc[(10, 0.7552794), (15, 0.20186155)]
00a79e74c461eca45162f92d8b626bdafc1e4d20[(0, 0.041202284), (7, 0.95696336)]
00a0ac40c6633aceace7832601375a04bbc259f7[(14, 0.9992088)]
00a6e1b38976f1dea9151d0999b928055f666358[(12, 0.99890244)]
00a5e8adf82dd4a7a1a45c9cea20290d7ea4d983[(19, 0.99771494)]
00ae471583ccf0d1ee84bbadac2e26a325f4cc55[(8, 0.8936508), (11, 0.0978475)]
00afb4dce33e5e815ba624614d08b2b860022110[(5, 0.9990736)]
00ab4c1f4875269364335292afe6f705ce3b5e15[(1, 0.9830299)]
00a8b5bb93e45b87e4a8d946865c3fd0ecea0201[(13, 0.9930112)]
00ae3075078707a4fc1437fdd7adea65a2cfbfa3[(0, 0.05), (1, 0.05), (2, 0.05), (3, 0.05), (4, 0.05), (5, 0.05), (6, 0.05), (7, 0.05), (8, 0.05), (9, 0.05), (10, 0.05), (11, 0.05), (12, 0.05), (13, 0.05), (14, 0.05), (15, 0.05), (16, 0.05), (17, 0.05), (18, 0.05), (19, 0.05)]
00a4070f6f4e0a86035f8d951ce5ac5de223200b[(8, 0.09215606), (10, 0.9013566)]
00a6e70b8c75c5cd5a2e5fd6d58b733965954692[(17, 0.981356)]
00a2ecd6bfbaf63309b22787f3de225b427ddd17[(8, 0.9945963)]
00aa23b6f94485cacbf4e64e630d3026f33dbdf6[(2, 0.99878305)]
00a4c83f32c673b3d76c9abe5f981e814ba414d8[(8, 0.9997622)]
00aeebcbb79e0cdaa3b1947e23e78115e564d2c7[(9, 0.051115688), (12, 0.8690873), (19, 0.07585705)]
00add5f4762e869448d2ac5c970869ae6782bde6[(10, 0.9968942)]
00aed1bcfbe09df2efcdeb56bdf2a6a35031158c[(7, 0.07216182), (16, 0.9222469)]
00ac1753ca5528c8bd2354db2b1dcb6abced8163[(2, 0.99969107)]
00ae7197ef8bf868ce901261b55452595f4ca524[(14, 0.9882652)]
00a94702086a9715b96b1b99489754635c6df4f8[(5, 0.9984315)]
00a27eb2ff3c79def8ca312ef1491a2185ad36cc[(7, 0.99103415)]
00a4342ae38dec5cfecf8c0f336a0fdca1fa87f1[(4, 0.9984447)]
00ab3097204291e49ca14bc1005f0d5a99d2fecd[(12, 0.9997653)]
00a2b21740167bd24c1d5b1d9647dadc88b0927b[(3, 0.8441367), (11, 0.15088773)]
00ad476e977af730d1c26ec59aeb540e205b47cf[(13, 0.9736014)]
00a80517f60135d8b0337ddad2f91034461f8399[(3, 0.9251094), (14, 0.07212813)]
00ada2502be167f591b308fb8271f7a6ac0a0065[(14, 0.9942751)]
00ad6ac362e417bb7b043b948c780607f0de99a9[(10, 0.9942738)]
00ad908053c551a8437c5378685ed50a771313a9[(14, 0.14965856), (16, 0.84926456)]
00a9d3dd7188ceb8d25ead814c7b22d79306b5ac[(17, 0.44658807), (18, 0.5338376)]
00ae3297ee193e684642b09e92dff41b149b247b[(19, 0.9970826)]
00a9c1d972e47e52ebeb267528122d836ac4da28[(3, 0.9960573)]
00a9d35b688a7bc581904fa4f3b65f56f9728cfe[(17, 0.9830274)]
00a5a08e3de491f5cd7ff31c43fe8f54832c7526[(12, 0.49558264), (13, 0.50324965)]
00a1efbeaf90d34466f838bd54dd738e676202b2[(15, 0.8416252)]
00a3a76e9202c4a36f93f8f8ae8fa0c61c68b3ae[(6, 0.9706314), (18, 0.029154388)]
00a99b2effdde485b1ba96dbab732d91a1237c0b[(1, 0.9248916), (11, 0.06521436)]
00aa1fe0b290234c1ec92e68ca754262aefde241[(4, 0.99926394)]
00aad2dc008bc0a7139d2b4c5cd5eeed0a560d18[(15, 0.99981767)]
00a63bc7f07ba534ad359c52efa5da1897371f01[(8, 0.9830164)]
00a1a3d199588829c90d6038906639938d09cb1d[(18, 0.9991881)]
00a2a47a2fc931ac220f16d244c3a146c1a89386[(7, 0.9735797)]
00afb44a95b037f5674fbda896372ecee5e5b90f[(16, 0.99864393)]
00a00f0d4da229429dc38d8828c2325d57c46011[(9, 0.5497526), (12, 0.43976492)]
00ac0f8c6502095887d9c865640933134f222fd6[(7, 0.40191585), (18, 0.58958906)]
00a257c9f24371d0c5b614ca867db76b56a69cc7[(4, 0.9997985)]
00ab0026af013a069f2f542ad4cbd3c9e44ac22b[(15, 0.9947447)]
00a833bb2ed9a3729c8e40caad8df83aec78ee00[(5, 0.9768166)]
00a1f5805f98fdf1c2f864d4c65cca30e3626765[(19, 0.9989152)]
00aa66509910961d079a7d8a4823cd41452ecc3a[(9, 0.9813449)]
00aa429def1b485c722a3a293939a5cd47755137[(12, 0.70852417), (15, 0.28551048)]
00a29ba2b925f174f6ce61e35c7c964bbacadaab[(2, 0.36104247), (6, 0.42306986), (15, 0.21568537)]
00a6af970872d13858a83bc92d1b3be9abbefd71[(5, 0.16754293), (12, 0.8313397)]
00a80aba8a42630efe1557eb52d59fa7a752c133[(12, 0.3143398), (16, 0.68435687)]
00aaf70a2654870cb3ab553cd7c72a48d59fcddb[(14, 0.9830284)]
00a8ff0e8b23f9906dbfd47a76d5fdc58a3807a3[(9, 0.4215962), (10, 0.5708418)]
00adfe1378aeda525679b33751cab77d43f48b0d[(1, 0.9985837)]
00af66d5050a17b5c77c7b1151827b5456ac3fc0[(6, 0.030328255), (18, 0.96858)]
00a0055bf300c678aca5dadca176c6d79db9fdcd[(5, 0.9992832)]
00a36637ca86e3505a7bc18dc4f4c04a6683f945[(3, 0.858149), (12, 0.054683022), (18, 0.08668074)]
00a63d24755c4457ee8c95badd96cc05bc3f2a5b[(7, 0.25847077), (9, 0.7376322)]
00a648848fcf4969b1667c78accde1fa64b7620c[(1, 0.10931709), (3, 0.88957846)]
00a20215bdb0b9d66817a1a09f0c7876066b5aaa[(0, 0.9988763)]
00ae4cb1d3b4726159e53bf84eb2af478dc24d69[(3, 0.9079454), (13, 0.091240235)]
00a991dc4773114558e421ea189c4a8072fc0597[(15, 0.9768003)]
00a2796c5af64af7c751a929f6c6dae760dca136[(12, 0.95466477)]
00aa3c2bd86814c1aea00f2a750942c8eff1d605[(0, 0.10200765), (5, 0.014781673), (8, 0.666624), (9, 0.011325713), (12, 0.064205974), (16, 0.07446925), (18, 0.025462802), (19, 0.03399955)]
00a9ff4d1db353e6411b26796663285b12efa9da[(19, 0.998927)]
00a43a88543bc15b3b5bba15043193429a5cf7dd[(5, 0.9954964)]
00acd17ecb6798aa7f13e1b203fe5cd20d01ebd8[(0, 0.05), (1, 0.05), (2, 0.05), (3, 0.05), (4, 0.05), (5, 0.05), (6, 0.05), (7, 0.05), (8, 0.05), (9, 0.05), (10, 0.05), (11, 0.05), (12, 0.05), (13, 0.05), (14, 0.05), (15, 0.05), (16, 0.05), (17, 0.05), (18, 0.05), (19, 0.05)]
00a2e2e01fd73d878f1d551ee677a0272ae43a9e[(10, 0.98661023)]
00ab1d28e6a209c1797e1ac55ef6997b5270f866[(17, 0.99851775)]
00a1b599da2c1b1a7f13a971d1bd52327970cede[(8, 0.85962915), (9, 0.058550794), (11, 0.07843141)]
00a46ecd890e504a70e9bcef3e691227e15ebc06[(3, 0.9693209)]
00ae3ae3a254c4f32160e6ed6c8475a3f9500045[(11, 0.98174), (16, 0.011277041)]
00ae28d22406029bf327db85b46219ad12625742[(7, 0.9976597)]
00a2cb8634fd9db76f52f39031486d6287de0a9f[(16, 0.995272)]
00a230893a30742ee85fced80c863b880bec3a15[(6, 0.99661756)]
00ab6a18624e18533e1205b77ee8c901e5d1b477[(17, 0.9968944)]
00ab2d985de2a0d5be48f3b8ecc41c83064fc60f[(0, 0.43804225), (12, 0.5610103)]
00ad6fb09b8d7aff72bc492cd24505e6432c0ebb[(7, 0.08187499), (9, 0.91467613)]
00ab322f423c6e3fb45885d515fb6a4a80fc5b20[(12, 0.99239165)]
00afda2671c8b6d02c249030bae3410d1cab47df[(13, 0.97681546)]
00a9f78f9eca52fc7424f3aa48e247f9fdb8b3b7[(15, 0.9993358)]
00a9c44ffc444980a004539cf9fd1ea0d143804d[(6, 0.9953854)]
00ad5592e6a4343e8cb1896ae1d93e40635ebe35[(9, 0.9995178)]
00adef19492a4ab17bbddac59eaa9ac77f21fd4b[(2, 0.99980277)]
00aa3909a2d396ac0ccb34c46f20526be86a59df[(16, 0.99960995)]
00a54feb04b230d51a934205ec8ceb9707b0aa13[(1, 0.80683184), (9, 0.19144027)]
00a826c80ea147022ab472320487f9258f2ef56c[(7, 0.99694425)]
00ac8489ab9209f4c0ba2f6eb919605895387d5e[(1, 0.9964278)]
00a9fbcc5c455453fbf350853f9ad42b0b054401[(2, 0.99502325)]
00ac7e1997b122208130467feadd973c0afd9b38[(16, 0.9990554)]
00a51471e268e0111bbbeb8709be25051466f835[(2, 0.9917983)]
00afd561fcded1b5b49c200998185be5c91dc4bf[(12, 0.15253805), (13, 0.8426206)]
00aa0ff1f8a48c164347b852fd9006ac7e47ca91[(3, 0.9185582), (16, 0.08004662)]
00ab501b8b6ffe7925d507e8ab35db7fe5a4df72[(8, 0.99866176)]
00a3d554377a2a88b85bd9b86cc74b1e68f39e7a[(12, 0.9938873)]
00a69efd514cd9e2faf3ac5bc34ee352f846eaf8[(19, 0.9987909)]
00a010b87359df529dbe3e98fd0d4db0c392a1a0[(5, 0.99951166)]
00adf1c0410d6adf8d64f33904134b114d03936e[(6, 0.87265545), (15, 0.12352657)]
00a025c938900271a7bb2894f94ee39b7f92250e[(9, 0.9997707)]
00a6a96850e3ad26328f755c99404e611cab699a[(15, 0.9971697)]
00abaa1966788a1699779fcd879575c00db4f65a[(14, 0.99972224)]
00a98f0b01eb0ddf97b2312fdf75c2cad2b921f1[(1, 0.9970385)]
00aa22675033b7120e4eb77f9db338ed4b4c4740[(12, 0.95001274), (18, 0.04281727)]
00a94cefe2b278d32569dc9ddf24397f49f88f30[(16, 0.9736092)]
00a5fa6617ed79ff5d81870310439589fc62cd81[(17, 0.9830318)]
00a4e90a24f6a0c6507d4f6db43c189eea97e679[(11, 0.98826224)]
00ae8341069ed92fdb52ab727c75790b53dc5698[(2, 0.9996801)]
00a449d12913b4c25fcc9e96addd347f3c4c4b56[(15, 0.998672)]
00ae44c396e52401384cd04887a200d50830dfc2[(7, 0.9952732)]
00a05518e760c1dec50cc965dff42375d1b0e1bf[(8, 0.9991805)]
00a623434fc6a88dcc492f71852e4b837ec68755[(2, 0.6060396), (12, 0.3031924), (16, 0.088673785)]
00a146e6a3692e9a7834d9d6f212e10bbecd5f8f[(0, 0.05), (1, 0.05), (2, 0.05), (3, 0.05), (4, 0.05), (5, 0.05), (6, 0.05), (7, 0.05), (8, 0.05), (9, 0.05), (10, 0.05), (11, 0.05), (12, 0.05), (13, 0.05), (14, 0.05), (15, 0.05), (16, 0.05), (17, 0.05), (18, 0.05), (19, 0.05)]
00a239570ab3dbe84e2cb05e0c63c3a5b5411608[(4, 0.9966768)]
00a0baac659fa4eeb42c0e3037dfbc8793d350c7[(17, 0.9958847)]
00a9a2b6080dbcd9cb77af65a3f20f4d6931877e[(0, 0.025727348), (1, 0.17291649), (6, 0.051806536), (9, 0.6958979), (17, 0.021732617)]
00aff2cfafd0613c3659d76698dc0417ab71d341[(5, 0.90406424), (7, 0.033257734), (14, 0.06060828)]
00aaa97ba12769c634af4f81e1249665bee14465[(1, 0.99924946)]
00ae85e3baa3a7d83a82efc92cfd14561a060e49[(1, 0.9921472)]
00a0f05dfe08f660ba6cd0c19594f078e592bb03[(9, 0.99929667)]
00ac48fcec82438ab90d9ae321ef35f660e819fb[(5, 0.40274024), (17, 0.5935236)]
00af81ddd5044a995f1a6e33c19af528924c9231[(11, 0.9973285)]
00aaf7c93057eac934e17f790cf0db46e5088317[(3, 0.99990195)]
00a236b6c26d159f6ac1d6f6b929f3929789ad99[(7, 0.14641312), (11, 0.8504383)]
00a1c1e12eff796db78cb1fecb43141afccbc2b4[(11, 0.99978286)]
00a840aff71b462e431e12427c49107804daf91d[(19, 0.9940977)]
00aa416e508b4c5a5f261a9c816eb7844c55afd9[(4, 0.9997242)]
00aa6310655aededdba67320bf8560ef67ee2835[(6, 0.61744833), (14, 0.37265146)]
00a9dbd9858c697461a2bd0be4b27d00372077ad[(4, 0.266953), (10, 0.39477986), (16, 0.3294082)]
00a27249366c82d144c69414371f9b740afcb6f0[(8, 0.9983484)]
00ad2282924e2e351c6d2257d5081cfbbf26a663[(4, 0.013453364), (7, 0.31621417), (12, 0.6491774), (13, 0.020504504)]
00aded12209ecfabfaf2bb87a5d3daf32f35568c[(1, 0.054020558), (15, 0.94293636)]
00a964a30ef0260d25be2d447e69b6b06c8bbfdc[(1, 0.023683455), (2, 0.013515395), (9, 0.9294889), (11, 0.016060436), (16, 0.014156479)]
00a83772b423e4aea9e41cc3b938b6a7e67fea4d[(16, 0.9974383)]
00a177641af469cdaca603daed9977938c596790[(12, 0.9985175)]
00a8cbb2085c6d7ecabff4eab5faab7287e75c39[(5, 0.9701489), (12, 0.02742552)]
00ab2ebb78d36ed72377cb003f87d137f6e5b743[(5, 0.027547551), (12, 0.9716117)]
00a16bfc3e0812f357a93a2dd25721fd2cd10375[(14, 0.99967176)]
00a9b72bd2c5a47c05c0e3df3e9553285352b85d[(1, 0.99963886)]
00a017686dc2bc1878c92ced857ad7632cca0036[(17, 0.99733037)]
00a138169640813eeca0a4770d0ec991870abad6[(11, 0.9978917)]
00a5da0c87ab8748905592acea0499626aa961e0[(4, 0.6078465), (15, 0.3903521)]
00ac94692d3355f7a55d205940ab54ce8ed023c0[(17, 0.9966776)]
00a0fb1ead4d5ce562a60f8aff14eb0fc513a4de[(18, 0.99621236)]
00ac8c053d35f738bd89e0ba5801bc8eeb7ce955[(0, 0.9997376)]
00a87a432a850e18ca81e0406152646952ee3497[(9, 0.1338869), (10, 0.86312205)]
00ae4001aec82a8188a359d8b8669abce655dcbc[(12, 0.14317489), (16, 0.85519075)]
00a61f3ec8e22b348f1b38122baa7b8e6efb47d6[(5, 0.99753827)]
00a753a98225a19b2a19c6e9b300ebc0f3a489f0[(9, 0.9921439)]
00a2e4d87848c204de7112aa5c8e9727282fb0f7[(3, 0.99844396)]
00a3c7842eb3703b8a7bfe196bb9407611288e6a[(2, 0.011564267), (7, 0.94388646), (10, 0.03306808)]
00aec394c42fd8b2b14cf11b8aec1b9c8512c060[(7, 0.46547908), (12, 0.5094927)]
00a9c31d858c83847988d223d1aefd694dec5aee[(6, 0.51329726), (12, 0.48569748)]
00acc2e359a78cfcc74284a9fda2cf6bd2fa9f34[(10, 0.9962875)]
00a341422b427ae88e07c444f02ba8385776df75[(7, 0.99943805)]
00a11aaf5f6aa1eb6765f23876753a65dce34186[(14, 0.9774122), (16, 0.021051051)]
00acbd6cc9e4c247b2bc019f2a38967704f9d1ff[(7, 0.9984697)]
00afff34416b8df3a3e388a19cff6d04178b6347[(0, 0.99849373)]
00a22984fdb44de5a09eac98690a9fb6633ad75d[(2, 0.10424346), (4, 0.63438654), (7, 0.25733975)]
00a6e89534f5af0f23d4b6951e0f554a9e4c27b0[(15, 0.9917978)]
00a7215e1f3c3d00f2647f8faf8ce8b4f763661a[(9, 0.6625854), (15, 0.32264602)]
00adbb9d950951f1ae63b316147ed02125542f76[(13, 0.999751)]
00a08d025a58453fcd65f6b83dc47c0bd5ff3b19[(9, 0.894183), (16, 0.10261312)]
00af890c3a7d5b18a95ea70d2f5ddda21bda6dea[(14, 0.9986435)]
00a9b3aea51529997bc60609a0315784afe508e1[(9, 0.074529216), (15, 0.9224283)]
00a10a1cfc063cf7e173b315cd826d798638fef3[(9, 0.99895656)]
00af571cd595649f7cc7d766dad77e5cdc0b73cf[(1, 0.0265738), (6, 0.97225726)]
00ace1887c9407cecf665f514b3122ad28b5b906[(10, 0.80909413), (15, 0.18909018)]
00a7bb65559d5198861f91d780bec5eadc4363b6[(11, 0.54213524), (12, 0.45676112)]
00a21c35071d7df06912a9a8924a136fdc41eee4[(9, 0.9946002)]
00ad78bc2dee8d2feb195ce5f02d67ce54aed930[(0, 0.98748744)]
00a0505b7f5c9164f78204e8091e30447b0ec710[(14, 0.99736744)]
00afcc77039bc1d688301ba78f6a9f455cea2b59[(3, 0.94774157), (16, 0.047141)]
00a34587034764b3a9fd8cc08fea274fcc3c3a98[(12, 0.9995162)]
00a9cca7b49ca921a574de083813d1a08a458a29[(9, 0.99980044)]
00af89acc089c4d0de16cec49891323eab4f9f11[(10, 0.38269147), (12, 0.6069863)]
00ae0d22d4abc7ae267a4efe210e37699299b2c3[(3, 0.69055814), (12, 0.30799124)]
00a2d06b5364e7751b082f2c15eb3bb899e0aeb6[(7, 0.99968547)]
00a226ef24d5d448553b391d8672820bf72e2c3c[(19, 0.9957943)]
00ac46481c5fed8236d8f5dad8d43d113ab115a0[(6, 0.9962848)]
00af78b49658a7b4ae1ca8ae3d048b7db2555d58[(1, 0.9996281)]
00ad349942f85d7a838f8901decde4adc0ce2553[(11, 0.9996469)]
00a60fd3871af394ee31f850962d98a6930d473c[(15, 0.08047796), (19, 0.90681565)]
00aa054ce1b94e3c1bce2eb9d925405f0ec673fc[(6, 0.9471967), (7, 0.05166529)]
00a01b74a2bf853b5db0547f62848b83dd5c4b55[(10, 0.086087026), (15, 0.91058964)]
00afdcdb9ba1e20d19e18e344f02d77b0586d45b[(0, 0.9919964)]
00a5918eeb5da02dc25b9aecaa2a442e035734d3[(12, 0.9984054)]
00a53bbfee2e421844102e781303c7b12c6f0a53[(12, 0.34673762), (16, 0.6524255)]
00a9ca59ab8db9c8d2ab6d2cb354a8419cf7075c[(14, 0.9993474)]
00ad2943b87a187c3caadad1296b5946ead8ca06[(16, 0.95475245)]
00a124a623ddadca365d71cc8f17e4b5e81d46ac[(8, 0.99973845)]
00ac50e5d20dfa4fac9bacbdfdc6cc3ccdba8051[(0, 0.06874593), (4, 0.01804213), (9, 0.021410232), (12, 0.021645304), (15, 0.040118974), (16, 0.8207001)]
00acbc64a9adf79d2aff9a8ace3404358a8d8cd7[(6, 0.9995861)]
00a5091d99a1a97c0491d4d1a7a83512f7fdf19f[(1, 0.99762946)]
00a90a58b61be9448133fa4d373c0525f159a559[(5, 0.9970366)]
00a36efd74ef8d18f661d8aff5e6e48c01550acf[(13, 0.9934898)]
00a9d30c1858719da7f67489eb813bc28f7b252e[(12, 0.99883556)]
00a1de03302265cd9a590683e0cdfc5e52a988af[(7, 0.14356314), (9, 0.197157), (18, 0.65824425)]
00a031afefdf9c21ddf9d6d34a18a35bab804513[(16, 0.99836373)]
00a2233797934055f0052bbcf0461b9756ffd4c8[(18, 0.9844161)]
00a144f7635faf17db714c823ca8063e674b2264[(5, 0.99873394)]
00a605fd4bb605602fe54158f89bd9c78331ccb0[(10, 0.99950904)]
00a4320d7c6e424ff31d216549665d7b574d5221[(7, 0.3327895), (19, 0.65452987)]
00a38d1a897e9e6d89df9f3d17da11e195a54e4c[(3, 0.0130340075), (9, 0.06277978), (12, 0.01399746), (15, 0.033108536), (19, 0.8574897)]
00a65d7442e64c16b8a90f12b33bb44d79a98b37[(2, 0.99974287)]
00a6a4fc891e4c3c0ad72dd9b4ba964e847392bc[(6, 0.9987087)]
00ac3d32567adc39868cfaa16f423293030d3867[(10, 0.99325436)]
00a7a5a29aed06addfa772d125e34db1d4158f28[(1, 0.019873206), (19, 0.97942644)]
00a50befb9312cfa5829020b690dd085438f0afb[(16, 0.99869967)]
00a92a6b8d42ea95dc6e8c969941780fa2f83439[(12, 0.18538709), (19, 0.81310153)]
00a0e64aaf9b406fc47647bf261fc1ae3929b503[(0, 0.85157347), (7, 0.14661098)]
00aba5df0fc2b1bebaa6e477768035c31c82dda9[(5, 0.9735775)]
00a3c19c507e24a123e47939e0b55ddea20028d4[(19, 0.9962656)]
00a5bb3e2b3ff26c171c0b8a8a23d71f8b99a60c[(15, 0.9995591)]
00a1ddf2b657e77c6ae5467979602d0fb4a85d9c[(6, 0.9972534)]
00a470cee0e887518caaf19a75fba48554372219[(12, 0.9988898)]
00a1a05d5a9ed21f0a99226975edf83d9a09951c[(2, 0.78077334), (17, 0.21669726)]
00af474391c6eb92ff8fd9b013ae494fefe7c524[(16, 0.68887013), (18, 0.2992816)]
00a0fab2329bae1782a4b69c3328db5d31460785[(18, 0.9977691)]
00a7d50b3330e9b53e799fe1bb12b4f01718c4ba[(6, 0.037278738), (8, 0.9609242)]
00a40405ea13798fe625739ae06001e84407cfa3[(2, 0.9993091)]
00a82a6008c934903e2ced5ec6a43adaa4dab33d[(5, 0.14946334), (12, 0.612848), (16, 0.23676495)]
00a34bdbf53143447e95cc252bf04e87b29fa678[(3, 0.75689495), (7, 0.15553422), (10, 0.08211861)]
00a2cdadb739ac4b44c3d6def2efac9ac57315fc[(17, 0.9940967)]
00a9563f06fe114f861f1c9fb1cd1db08d50d695[(3, 0.99927723)]
00ab28168bd30269db734ae540e259bf714a0106[(5, 0.99982095)]
00a5a11e549735eacb3e0c75a49dcc37c63d9e41[(8, 0.82335895), (14, 0.17374611)]
00a33b61485e1d63985fb452b6848f338ff023b3[(14, 0.9970391)]
00af1d2156200ef000bfa5a8a84205f4fbf9df91[(18, 0.9996375)]
00abec16544aa36762adfff1961b835907fec154[(4, 0.99827534)]
00a5027562239fc81cd4fc7c35f7eb13d6826ffb[(8, 0.9998868)]
00a2acda4e894e3059916bd038e364f6f3508c2e[(18, 0.9634441)]
00a4141fcbf89d64a3bfb738042958a5bd90caa4[(11, 0.9387173), (14, 0.059920367)]
00a7bd1aa13473ae59e891e0b951f75de75340ce[(19, 0.9970388)]
00a530167c6a13c9d308311f0c662ae02bfc5e42[(9, 0.07172164), (15, 0.9272013)]
00a2b1db78bd03bb1351ca5d672efcfcc9868130[(0, 0.05), (1, 0.05), (2, 0.05), (3, 0.05), (4, 0.05), (5, 0.05), (6, 0.05), (7, 0.05), (8, 0.05), (9, 0.05), (10, 0.05), (11, 0.05), (12, 0.05), (13, 0.05), (14, 0.05), (15, 0.05), (16, 0.05), (17, 0.05), (18, 0.05), (19, 0.05)]
00a89e9046933154869ceff7e895feb35f728119[(6, 0.6852845), (12, 0.3137687)]
00aab59286bb2645a33c2d7af4d089945715ab33[(12, 0.979326)]
00af8cfc18b0212f556355b92810e39b063f4413[(9, 0.07429915), (12, 0.9235362)]
00abab9ac575cfb89a15dc2b148fe7b9f8c8a549[(13, 0.99301165)]
00a16cb95988d994ef48e8954db0e25a8db7af96[(0, 0.7679126), (7, 0.13561419), (9, 0.09454396)]
00a92bd7bfe109668767f3dcfe51841027d47363[(3, 0.9984941)]
00aa3686d439b8db368e4ccabcd24d6eff5a6429[(6, 0.998482)]
00a109e0653678fa9540c11565e12421baea0e18[(4, 0.9983787)]
00a4b274ef2aaca8db832db3596bcd280f24dd9e[(8, 0.9989265)]
00a11e807b18ee9848529bdee22d5835ecf4bb93[(0, 0.070219845), (6, 0.37996814), (9, 0.27964902), (17, 0.2602777)]
00ad053958ae11c9906c1ed068eddb9178072823[(9, 0.86651254), (18, 0.12877151)]
00a437ba64eeff0e6b0e0380d13ad8800620a284[(0, 0.16492097), (6, 0.059339203), (11, 0.7425616), (18, 0.032223828)]
00a9f563792976f14bede4ed5df9a7228f75a2af[(13, 0.9905884)]
00a7f67e3c907d8e1041fe1f3f3195985fcf7be3[(11, 0.99977565)]
00aad4058929fe24e9278d6f98f06cbbac02e9ba[(14, 0.99642706)]
00af853416cb414fb3d024309e173662249dd3fb[(5, 0.9992214)]
00a1edcf6796b1d84618265a14d6329c608720de[(6, 0.8099495), (16, 0.18825263)]
00ad41e3e7d2054211fe4db54718c4b3a7f933da[(7, 0.99900603)]
00ae2573a6d492deceb3ee8cb5922f2e4055670d[(5, 0.1939683), (9, 0.8054758)]
00a26fa9b41488ac4396fc60c56821952e7e384d[(3, 0.99628526)]
00a9bd326f68b28cf17bfb9fe6b3921c90029f57[(2, 0.35507363), (4, 0.14035466), (7, 0.49521995)]
00a041383244ca7383fb2a5a443ec3143b28fc9f[(17, 0.99841917)]
00af0334c80387ccdbf11a5697bf51af49ad94ef[(14, 0.99802357)]
00a456bde1df2e6bbfb86b2af4a5c88ba2f2d01e[(11, 0.998939)]
00a4f995a6271a6e335c6cbe21481101ee2ff039[(11, 0.99956816)]
00a5981b2a4cb2b822e6b987174cc5bb8f49ddc9[(15, 0.02661319), (19, 0.97158897)]
00a838173ceb22e0d821c3af8fd36eb704155e38[(11, 0.99958163)]
00a2764a0cc4798b735d7e06058533b1a6c25ff7[(13, 0.09907206), (17, 0.88981116)]
00a3218edee475ffe1205717db73b4575115f6b0[(9, 0.98558843)]
00a964465cfd9c1d0f57cc6dd5c29047bcaf3bc7[(12, 0.6652835), (14, 0.32106188)]
00a2e22419fde48ab0da5f0bf56ee79709ce042d[(1, 0.61833733), (17, 0.36802205)]
00a0c2bbc4cf260a77421405714edd25acf50e0f[(13, 0.995272)]
00ae1f838bef52af711fefe354aeb0a975bf91a8[(0, 0.112340845), (1, 0.01599099), (2, 0.028909404), (3, 0.0130747855), (4, 0.06921252), (5, 0.13460642), (6, 0.010326465), (7, 0.022542477), (9, 0.034801513), (10, 0.012685462), (11, 0.020612035), (12, 0.022831881), (15, 0.041274466), (16, 0.011639498), (18, 0.39419457), (19, 0.05481805)]
00a2e2ab30d0a2cb20bcdb15b86af1738da62bff[(0, 0.18137659), (9, 0.8025346)]
00a0bc3df957eb6b28b20aa959c10787ed109797[(0, 0.8960572), (4, 0.056580577), (15, 0.04581896)]
00a2e1384add90e40c4c03921003dcc820e29513[(11, 0.99508315)]
00a9d03f50550350e1ce0f7f4b6c7abaee4c1457[(5, 0.9988426)]
00abdbaed955e39a1486efefa7bc72ac02968563[(3, 0.8974278), (11, 0.09569866)]
00ab151d02d50a8c7d1671a4c17a83bb7cdaa714[(5, 0.99886334)]
00a2011d97a0e52fa01cdb3ce1dd0171f720b6c1[(7, 0.12934037), (14, 0.8664898)]
00ac41553544234ada9a79ba131f3ee9b33489ed[(18, 0.9997467)]
00a536b0140bfd3e35a11ee91e87e349ef74294f[(4, 0.06644778), (5, 0.92399955)]
00aa78fe4aec5eb05b074a041c6c890922a0e3c6[(4, 0.99784374)]
00a9203be8ec6c298fa6ec978d9bba5a6baa2934[(8, 0.97584057), (10, 0.018883184)]
00a4b63082fcbeea090849f9e9b5e7b7399a5c9e[(2, 0.9768039)]
00a52fdeb09da18d60e39ea9eb1a28e6044a1906[(0, 0.9940956)]
00a9edba6bdaa34de2ae1d548cbcf079175a6168[(5, 0.38678572), (15, 0.60823834)]
00a79581e203d8fa2e8f8f42f1e0ae721ce92784[(9, 0.9982573)]
00a5345ac40e4b3363486df1f077677917a27ef9[(3, 0.9954967)]
00ab8ee870c16541f4e7e75b2dc3caa9ec42565a[(15, 0.99798214)]
00a23fbcd8026c33389e08ad789a2f3f21f8d252[(10, 0.9969928)]
00a029e3de255292f6b68d4cb5da96ad18a64396[(13, 0.012312812), (14, 0.98676455)]
00a2660f1f1952cf519275bc40997cf8e32a3a8d[(18, 0.99977356)]
00a879f870e4e111756a278167d6ee546360b5cd[(19, 0.97933185)]
00a250029bae1dbe9ffd80db1b7d74e330c7aaa1[(7, 0.99848163)]
00aba015afb285915e3ffc046768fca977445582[(4, 0.9918069)]
00aebe76c9e29d0a21a29fa2bbe60753e64c62f4[(10, 0.9956988)]
00a90a382fa8a5c6f4235a5272043d75c9faa427[(5, 0.018787341), (12, 0.03196234), (18, 0.9484254)]
00a0a22be3c1bb85388ff5c891a6f3af1cab30f6[(0, 0.9830159)]
00a9752d17d3f733748a511693fb0ba4d7fb3c55[(8, 0.99815816)]
00a1f3c380a4281488067beb8cc63c7749ee5451[(17, 0.99966615)]
00a4f726b8ec49ffb4bb8fb69510dab23629dc1d[(12, 0.999294)]
00ac28e3d6ecd9d3e5476ead0eaba9ae85a5ad79[(6, 0.99973357)]
00a4925e7b570fefa7117b406e2b2735355acf0f[(9, 0.9959734)]
00a301ff36d24aacb4db951f88f8e89c56798e44[(8, 0.999006)]
00a95e975028e49d82944362c5a0276665b878a6[(10, 0.99876744)]
00af02286514bce5964a5e89ed1aeeb50d35c313[(6, 0.9222474), (12, 0.07648574)]
00aff6cbc81850063a4548700e07b0ddbcea9435[(10, 0.9921408)]
00a7144b4cb9d85548d1110311bbbb2eff660b87[(19, 0.9990867)]
00a1e2c9d0d5ac30d388ddcf8614e43f768e4a37[(3, 0.9945959)]
00a0e35cef8e191de53f59b5e36e55dbe0f4bf1e[(8, 0.9693027)]
00a7faa7762d0d05bc583ad3b6b7a1644579185b[(13, 0.99784464)]
00adf11429fa628dd9c065bd45cf2ef20bb4ff95[(2, 0.98134565)]
00ae020ea7fc11d2870662bb16d091bebacffa7a[(0, 0.9970371)]
00a552e6df9b89bfe196fda4093b7b763ec700af[(7, 0.30081034), (11, 0.15157655), (13, 0.19902597), (18, 0.32277256)]
00a3497b644c068e07210b304c85cac1fc5b4b43[(2, 0.99907786)]
00a8287637b6034a29c89099058b6e62172fdb87[(14, 0.99978435)]
00a3a770e2a0e843f582e23191e974bd78019044[(8, 0.9994751)]
00a069b509c8f78d137fdfdf61f68d711d96e0af[(4, 0.8004604), (15, 0.19664416)]
00a91f581497c59a55d0fbda9ae6af0dae1947e7[(7, 0.99937534)]
00ad53fab0f229da047fcaf6f721a7390648396f[(12, 0.9996461)]
00a1ca0922e4c1e7905830989e767aa776adffbc[(2, 0.976801)]
00a481825a70812cb65e81805f6408327fcc47d5[(7, 0.9889506)]
00a521f1076683b9e078edc47323fc8d2887cc2c[(15, 0.99771583)]
00a0b0af46c60f7ee591b2597c157226d11549e8[(2, 0.9073479), (7, 0.09238016)]
00a8b79cd0170818930a911305e86fb188e148f7[(6, 0.99867266)]
00a84051f98a21ac5320457375337f730da70f62[(7, 0.9972533)]
00a4e5166fbdbdcb124bffde8129dfc024b6e075[(16, 0.9981402)]
00aeac4979ca2b56510e436f05bea01bd165e482[(10, 0.9560739), (13, 0.042594407)]
00af755794ad8f4da61a4bc70b3864deaa070339[(15, 0.15576626), (18, 0.84057397)]
00a4c24d64759ebefd83ea7fd97310deba416585[(18, 0.9992121)]
00a06a7d6a3482d12c2349960c785c4a80d8c96b[(12, 0.9813587)]
00a629b41b8ea27f21a5eaae2b17bdd1433eb093[(7, 0.9430923), (9, 0.053007327)]
00a1a990beccfeafa64b470a8e43dda46113a1d7[(2, 0.7729282), (7, 0.22019972)]
00aa058ea22961142ac7e6aa9e99d7de68ce7708[(9, 0.19892175), (19, 0.79215944)]
00a23400c781c5f24e68b6bce2f6cee35ae79fa6[(3, 0.9985624)]
00a89f9932a13b15099b7b41d65ba0f989a65f9d[(12, 0.619912), (16, 0.3788561)]
00ac257e8d21cb121c450e0dca8ba3cc04ec84c7[(19, 0.99753726)]
00a643f7cc515cf67a139d55fe293a4dd7a8ffca[(12, 0.99967676)]
00a2d9c6f259c5110847752105c83a8d5ae847f7[(10, 0.9966763)]
00ad78afd099b8af3cef3fdb2a15bf24ec821bed[(13, 0.99913293)]
00a3175d713bedf408350912e5a24f78591dacaf[(1, 0.9813615)]
00a032dbe06fe653dba716f014bf82baa75bb794[(13, 0.9995683)]
00ab14d763f5b27251e1b6f84eb51a9bab8488c1[(17, 0.99983627)]
00afb5c3783df5330839ebf2efc2addcf1154cf6[(6, 0.9996577)]
00a55fee01b78bc38f1d52c7ebb205680a08ab20[(1, 0.9993584)]
00a5abc0a9d126e391f8abc6f0cff2bbabdafb4a[(7, 0.99825853)]
00a5552fca287309716189d6cd6a0dc0d3de8192[(12, 0.99898416)]
00a13b653c59f429c83030807ea76e6ae215fbe8[(17, 0.9918064)]
00a9abb17f4d8512781c9b2948ff03c849cfb495[(0, 0.05), (1, 0.05), (2, 0.05), (3, 0.05), (4, 0.05), (5, 0.05), (6, 0.05), (7, 0.05), (8, 0.05), (9, 0.05), (10, 0.05), (11, 0.05), (12, 0.05), (13, 0.05), (14, 0.05), (15, 0.05), (16, 0.05), (17, 0.05), (18, 0.05), (19, 0.05)]
00a5c4a0b28ee82731e48c2345a07abaa41bc44b[(4, 0.9986815)]
00a96d7ba098eb6a1fa79c55aa155ab158404730[(15, 0.99771416)]
00ac5784e2309702fb2ef7968646f43f5770a53d[(16, 0.9927452)]
00aaa0499f40b9c6c61c5b2052c5dd66c9859840[(19, 0.99975353)]
00ae5a118c946dde0944e659df164795020c6d70[(12, 0.040227488), (18, 0.95922226)]
00a401b65ab2633962842d9a2ba4c1c3e3eed231[(11, 0.178501), (16, 0.8182941)]
00a38e13c0bfa4ef48107b45f958333ccc0123f2[(7, 0.94337136), (18, 0.05413443)]
00a288a43496e11980919138db103f70ffae9179[(3, 0.99977756)]
00a648440f5a12e8915e8593c446d454f7afcad5[(5, 0.99873364)]
00ad74ab3231b70f592fe9f1bb5b02a14cffd317[(5, 0.63866264), (13, 0.34657177)]
00aee02e0fd96dd2a52c2a005642ef9782b5f1f3[(7, 0.20920454), (10, 0.7888205)]
00ab729f4839aedff63b8ef57f752fe0a110f993[(13, 0.9735956)]
00a8119b3990bf303205c56fef809fc88f03d75f[(8, 0.9978689)]
00abca7f464ab502c0da770ebb39ab47a053b9e8[(19, 0.99804497)]
00a104e12b05450f9752a0ab91ea6390cbc0df49[(12, 0.9993965)]
00a1f3c86e577b633ff7759d864b32fb7866f922[(16, 0.9983356)]
00ae965024933332b9bbfe7ae0f4faab26f7130e[(7, 0.06307892), (11, 0.92726654)]
00a5530d8ae0ef38b522d9cf13fc6ab9abdc9d0b[(0, 0.9379142), (14, 0.051613614)]
00a891dff03b9d333fa0465363c98e7ae9b39bfe[(18, 0.9988353)]
00a31d1663505aae5aa23820b0c6ee3aaff2c8a9[(17, 0.9954954)]
00a04ab3b8c3c1d124eb27812ca5f9d738f3f608[(0, 0.99979746)]
00a9870189041602209d0e750b063b4b8bbcceac[(7, 0.24564983), (19, 0.73477685)]
00acad5f7cc599c85c703d007818759a03a4c90a[(4, 0.9976879)]
00a4939c27ef79fb1135c590ce9f0002032a4a11[(19, 0.99961764)]
00a47da0ba512df2bc63e61c2a775c07d98c22cf[(5, 0.86554205), (9, 0.13028891)]
00aab92a9e023fd7a5753693b563521ad121f249[(12, 0.9996191)]
00accfbc1d5e10df4fce7f4e4a989dfc7e6e4b19[(0, 0.97420466), (19, 0.02059388)]
00af788db82bc0d9a511d58fd278e1aa5b6f1e09[(14, 0.97358274)]
00a318c38b23586302d55e5425a4bb64bc114251[(15, 0.99960095)]
00a20e155b4519b5cf0461a686ccda13f142788d[(18, 0.9997615)]
00a09d2f9c14440d5ddd6a896a68a0c9660774d9[(0, 0.9975688)]
00aceaf56bde2ce1c9d661a7bdfef2305132b7cd[(10, 0.9990055)]
00a3ec4151e8c07dbab590e90f669af0e3b58b52[(5, 0.2934671), (7, 0.6928825)]
00aa185b8c9ebd3d07e382f30650a4747b277733[(2, 0.9992465)]
00a887f664be03350ca5878fb8ddf22c98df2a50[(6, 0.13138342), (19, 0.85674256)]
00ae060bc355265d49a82b62957430726aee9f62[(19, 0.99914056)]
00a898c6a8ce7c77a612bca1d8a8beb8f6fc955a[(2, 0.8643014), (18, 0.12758248)]
00a661dac124119d9bf7c96f6f24066a260dc398[(11, 0.9990548)]
00a1e92fb303e1d9a4f9a52049dd0c7ab7afaadd[(18, 0.98895067)]
00aa80f0c21408d6491d3a83bdcc255472f6ca19[(14, 0.98825955)]
00a9c5dba3852370d6f6230f87a3ea5e87c2d2b4[(2, 0.9959728)]
00ab419216ccdf5a508f83e63f23c2fdc5dd46f3[(14, 0.97359866)]
00a70ea7c658848d77adbf14284c8e4df0c46b55[(0, 0.5266178), (14, 0.43871307)]
00ae3f1e5ef6ba1332e54a70beb9fc5723507c69[(5, 0.99058455)]
00addfea6e899ebc6ada716042738a0073907ccc[(1, 0.6064424), (6, 0.3589116)]
00a288390c7d5dd31a4bd7ac76b10911f0024af7[(12, 0.66585445), (13, 0.3328702)]
00aec9194cf020f2face67e6bbcd710f937ece2f[(10, 0.999831)]
00a98b43b4a8b85dbf447fab09304386e55ce915[(2, 0.9918059)]
00a85b080b3375be9e85d1bb6f27eeab887c7424[(2, 0.9956)]
00aae7dbfbab7c9dce669c3366c0375eec03737a[(2, 0.98135626)]
00ac441be3f475748048bb95a50f1d3efa9cb146[(14, 0.99655735)]
00a0daa109a52b9277b6e46209ae26f58dce9168[(5, 0.17941663), (6, 0.760066), (12, 0.05975853)]
00a12c75b91a4d59cb9016b66e7a105b66eff0eb[(19, 0.9984053)]
00a34619f1f5f3d36b56e9e5aa339e14a657412d[(14, 0.99667627)]
00ab8445fb3b732cd5858352eacac821795e29f2[(9, 0.9951508)]
00ae4b0a888a282e6cf19307ebf800e32e61b72a[(4, 0.912213), (12, 0.014678038), (16, 0.014403586), (18, 0.055592034)]
00a186011f67a9480bf42d6bacb1442103591692[(3, 0.575941), (7, 0.23111865), (9, 0.19198583)]
00a34bc547676c91cae6eeefc2734f595637c82c[(16, 0.9910281)]
00a7c5bc611681dea3f0167cda80ab6e2e48cfea[(11, 0.21161658), (13, 0.78261256)]
00aabc0dffa6155fe13c7ce334eca560454416b9[(1, 0.99943644)]
00aca4f52dbfb778e656127a51014b12844209cf[(15, 0.99409425)]
00a75049fe58f3e97a6be03ce2f9986412734f5a[(2, 0.60712016), (17, 0.3847694)]
00aa6a404432486a0462d69a2a0947f425caa5d3[(9, 0.2888736), (13, 0.70917344)]
00acf6e58aa96fd6ce42c0bffe129e37d94b2029[(3, 0.9988062)]
00a647449b16c9b99c18a0a3b6e592c1d0a81921[(14, 0.99863493)]
00a2f886da352e83c3e7bc37c8c61dc388d12a32[(2, 0.98440665)]
00a6b99e768ab5281c77dd7623f1d3ca41a92453[(0, 0.99621266)]
00a8d34b0ffd931c8ad46b7b1499a9c5fcf01399[(13, 0.99908274)]
00ab5061b7f21d8b60fbd1543681708b9b606fba[(9, 0.6805067), (13, 0.29040998)]
00a6994dc55831cf1381475b4c6e726d816afa4e[(9, 0.9977381)]
00a87f9d85c237c35a7e9571bfda208d9b286356[(7, 0.9233133), (9, 0.07415756)]
00ab7e442e7ba1065530365d3efbe37434c322c0[(9, 0.9856007)]
00a614762c07c18f43907740551175a79e260a12[(2, 0.99967617)]
00a685eb023a221ab399722989cab7a5ced78bf6[(11, 0.9981572)]
00addd6991581de0721cd9486b2473e19e8dd717[(13, 0.9944408)]
00a9c1ac1a2326a3099f776bf32fe5a781d060d6[(14, 0.9984059)]
00aadd47f48dad0408c4e33feeea88b6848df682[(15, 0.9948881)]
00ad39a9f93228d447ab057516ab03df912a825c[(7, 0.062153265), (8, 0.93691957)]
00acdfba9b8cdf346c388d8beaf99c8bd60fa3d8[(15, 0.99913603)]
00afe283acc2527ede3a3173b3aa83277760acbf[(9, 0.9993582)]
00a364acaff846e2183cd3e52d94f3deffa33c09[(10, 0.99841875)]
00a9c7a7105ca6b000d659edeb09cbaa39cd4e0e[(8, 0.99895644)]
00a7910ed058e51fc2d61339c9e209aca2d16841[(0, 0.79699934), (12, 0.20191705)]
00ac315cc2a39aa5974e800218bfa7802248a88a[(0, 0.9970822)]
00a9c28ed5e06bf6ba21827a23f41cc93224829b[(15, 0.9996558)]
00a1e4cc3deb1e3b4e471261e021e7aaad721401[(15, 0.99779505)]
00ae3dc49456ae959f15c752cb585a90d5e98a12[(3, 0.031054104), (7, 0.25535145), (12, 0.59570086), (18, 0.115897484)]
00aa57966283e79ea38483938970be23a71160f2[(15, 0.99437845)]
00afe09f7062013b5465c28334d90a89af5367bc[(9, 0.21447593), (15, 0.7766033)]
00ac2b5dabbe666ab7414d2955b2ad0f1b0192e8[(12, 0.9793384)]
00a9271230fc3d2beec481e23703bb3057350bfb[(2, 0.9991907)]
00a6e611e9da6d403d76f0aa751336d7d531a907[(7, 0.9968429)]
00ae95ccf96dc76c8b7591b8c9234da641d2ccdc[(5, 0.9988133)]
00a72e1f738f04a585468ca8f9989716fe179f88[(2, 0.9991207)]
00a4f4ed5952024517e56db291293810c0d14e8e[(9, 0.9990506)]
00a7b90bf2dd1d2341130aca91b929d3c5f80bcc[(9, 0.9982755)]
00a658b8f4f98a5934b4e163dd8b0e22330497d7[(16, 0.99970984)]
00a9ed85bfb6dbd9efa81948e0bcd3b93f584f07[(12, 0.011593126), (16, 0.9881399)]
00a2c1683c771644efbe5db434667a67503b38c4[(0, 0.98826325)]
00a62d69eef8d116ce233964b5fe92e07d7f94a0[(7, 0.99667597)]
00a286fd3e6f52994ca8e76949155f2fb9425715[(1, 0.99771506)]
00a72f60ce26bb90971d577d1309f72faaf83714[(13, 0.9972926)]
00af9f16b134e672432dd63a12c916c59824296c[(10, 0.99655503)]
00a9b47f5b99d780f61c0cd96759a0ed2d408cad[(4, 0.10204128), (5, 0.89565593)]
00a45d659978383e98132496d71e6bebb97c91fc[(17, 0.99503094)]
00ad4b2538c3be4be6070c9489defd04c490ad6d[(18, 0.999754)]
00a4d3da652fbf9e3c2b6580d28b25bffe1622dd[(17, 0.99915624)]
00a358a4e12dec3fdf797076a88068f83bba04e3[(4, 0.99909157)]
00a8c7059bbbf9bec45be2627ef68361cdf9f13d[(0, 0.9976591)]
00a197f54d56a91ffc8ef58bf843af1d7a065404[(6, 0.94254595), (9, 0.054888617)]
00a05ec7307f61974b5ad01f15d88f3bf9bd7b3e[(3, 0.64208496), (7, 0.2417396), (18, 0.10682877)]
00a3baec77532af71d7168685e1ff882e43dcfc3[(6, 0.9987261)]
00a3a3be76e93da21d7d59c80b4c740a8d03faab[(0, 0.05), (1, 0.05), (2, 0.05), (3, 0.05), (4, 0.05), (5, 0.05), (6, 0.05), (7, 0.05), (8, 0.05), (9, 0.05), (10, 0.05), (11, 0.05), (12, 0.05), (13, 0.05), (14, 0.05), (15, 0.05), (16, 0.05), (17, 0.05), (18, 0.05), (19, 0.05)]
00a95e8a70c7d179533a8d8ae29cee01abfd8f4e[(13, 0.012144979), (14, 0.9858586)]
00a516be8d13bbfd8aa647bb2e9648b95ab0f73e[(7, 0.99970317)]
00a193359bbd0d90761ddf51f3cc86e3c726b250[(4, 0.020608552), (16, 0.97705853)]
00aed2c80ee6ad4d2d6cc9ef842155b922556628[(9, 0.99884844)]
00aaa56090f2c77a520e7cb62b08d87fbfa8645e[(10, 0.99143595)]
00aa5756984dadf0439922ca9945e3b2d7febd5c[(1, 0.051351324), (3, 0.94683266)]